^\\THOLOS.ITSERV.SCSS.TCD.IE\PGRAD\SAKUMAR\DOCUMENTS\VISUAL STUDIO 2015\PROJECTS\SHADER\SHADER\MAIN2.CPP
/c /ZI /nologo /W3 /WX- /sdl /Od /Oy- /D WIN32 /D _DEBUG /D _CONSOLE /D _CRT_SECURE_NO_WARNINGS /D _UNICODE /D UNICODE /Gm /EHsc /RTC1 /MDd /GS /fp:precise /Zc:wchar_t /Zc:forScope /Zc:inline /Fo"DEBUG\\" /Fd"DEBUG\VC140.PDB" /Gd /TP /analyze- \\THOLOS.ITSERV.SCSS.TCD.IE\PGRAD\SAKUMAR\DOCUMENTS\VISUAL STUDIO 2015\PROJECTS\SHADER\SHADER\MAIN2.CPP
^\\THOLOS.ITSERV.SCSS.TCD.IE\PGRAD\SAKUMAR\DOCUMENTS\VISUAL STUDIO 2015\PROJECTS\SHADER\SHADER\TEXTFILE.CPP
/c /ZI /nologo /W3 /WX- /sdl /Od /Oy- /D WIN32 /D _DEBUG /D _CONSOLE /D _CRT_SECURE_NO_WARNINGS /D _UNICODE /D UNICODE /Gm /EHsc /RTC1 /MDd /GS /fp:precise /Zc:wchar_t /Zc:forScope /Zc:inline /Fo"DEBUG\\" /Fd"DEBUG\VC140.PDB" /Gd /TP /analyze- \\THOLOS.ITSERV.SCSS.TCD.IE\PGRAD\SAKUMAR\DOCUMENTS\VISUAL STUDIO 2015\PROJECTS\SHADER\SHADER\TEXTFILE.CPP
^U:\SHADER\SHADER\MAIN2.CPP
/c /ZI /nologo /W3 /WX- /sdl /Od /Oy- /D WIN32 /D _DEBUG /D _CONSOLE /D _CRT_SECURE_NO_WARNINGS /D _UNICODE /D UNICODE /Gm /EHsc /RTC1 /MDd /GS /fp:precise /Zc:wchar_t /Zc:forScope /Zc:inline /Fo"DEBUG\\" /Fd"DEBUG\VC140.PDB" /Gd /TP /analyze- U:\SHADER\SHADER\MAIN2.CPP
^U:\SHADER\SHADER\TEXTFILE.CPP
/c /ZI /nologo /W3 /WX- /sdl /Od /Oy- /D WIN32 /D _DEBUG /D _CONSOLE /D _CRT_SECURE_NO_WARNINGS /D _UNICODE /D UNICODE /Gm /EHsc /RTC1 /MDd /GS /fp:precise /Zc:wchar_t /Zc:forScope /Zc:inline /Fo"DEBUG\\" /Fd"DEBUG\VC140.PDB" /Gd /TP /analyze- U:\SHADER\SHADER\TEXTFILE.CPP
